{
  "EDITOR_STATE": {
    "allProjectFiles": {
      "74e67ae9-fde2-4b3d-980d-7ae3c3bce634": {
        "id": "74e67ae9-fde2-4b3d-980d-7ae3c3bce634",
        "parent": null,
        "name": "testINDUUUU",
        "type": "DIRECTORY",
        "isDirectory": true,
        "children": [
          "5ff11767-3ebd-4dc0-bdb8-4f53b9fcc02c",
          "ee58df0c-b7eb-4d64-b61c-027654424125"
        ],
        "isRemovable": false,
        "filePath": "testINDUUUU"
      },
      "5ff11767-3ebd-4dc0-bdb8-4f53b9fcc02c": {
        "id": "5ff11767-3ebd-4dc0-bdb8-4f53b9fcc02c",
        "parent": "74e67ae9-fde2-4b3d-980d-7ae3c3bce634",
        "name": "lambda.js",
        "type": "JS_LAMBDA",
        "isDirectory": false,
        "children": [],
        "isRemovable": true,
        "filePath": "testINDUUUU/lambda.js",
        "cursor": {
          "lineNumber": 14,
          "column": 27
        },
        "config": {
          "runtime": "nodejs10.x",
          "handler": "handler",
          "timeout": 60,
          "memory": 128,
          "layers": []
        },
        "triggers": [],
        "testCases": {
          "e643ef81-2841-475a-a91b-46c931cb2930": {
            "id": "e643ef81-2841-475a-a91b-46c931cb2930",
            "name": "Test event",
            "functionId": "5ff11767-3ebd-4dc0-bdb8-4f53b9fcc02c",
            "event": "{\r\n    \"key1\": \"value1\",\r\n    \"key2\": \"value2\",\r\n    \"key3\": \"value3\"\r\n}",
            "eventTemplate": "hello-world"
          }
        }
      },
      "ee58df0c-b7eb-4d64-b61c-027654424125": {
        "id": "ee58df0c-b7eb-4d64-b61c-027654424125",
        "parent": "74e67ae9-fde2-4b3d-980d-7ae3c3bce634",
        "name": "ConnectionManager.js",
        "type": "JS_FILE",
        "isDirectory": false,
        "children": [],
        "isRemovable": true,
        "filePath": "testINDUUUU/ConnectionManager.js"
      }
    },
    "rootNode": "74e67ae9-fde2-4b3d-980d-7ae3c3bce634",
    "openFiles": [
      "5ff11767-3ebd-4dc0-bdb8-4f53b9fcc02c"
    ],
    "currentFileId": "5ff11767-3ebd-4dc0-bdb8-4f53b9fcc02c",
    "resources": {
      "rds-indunil": {
        "name": "rds-indunil",
        "type": "RDS",
        "config": {
          "editMode": false,
          "operation": 1,
          "rdsInstance": {
            "rdsEngineType": "mysql",
            "rdsEdition": "",
            "rdsInstanceSpec": {
              "dbInstanceClass": "db.t2.micro",
              "dbLicenseModel": "general-public-license",
              "dbEngineVersion": "5.7.19"
            },
            "rdsSetting": {
              "instanceIdentifier": "indunil",
              "masterUsername": "sachithraUN",
              "masterPassword": "sachithra"
            },
            "rdsDBOptions": {
              "dbName": "indunil",
              "dbPort": "3306"
            },
            "rdsInstanceArn": "",
            "Host": "",
            "doesExist": false,
            "initializationQuery": "",
            "alreadyDeployed": false
          },
          "rdsInstanceResources": [],
          "projectRegion": "us-east-1",
          "mode": 0,
          "additionalFiles": [],
          "params": {
            "query": "",
            "inserts": ""
          },
          "isGlobalEditMode": false,
          "enableInject": true,
          "isNewFromGlobal": false
        }
      }
    },
    "customTemplate": {
      "dialect": null,
      "definitions": null
    },
    "envVariables": [
      {
        "lambdaId": "all",
        "varKey": "SIGMA_AWS_ACC_ID",
        "varValue": null,
        "shouldPersist": false,
        "displayOnly": false,
        "editable": false
      }
    ],
    "packageJSON": {
      "dependencies": {
        "slappforge-sdk-aws": {
          "name": "slappforge-sdk-aws",
          "language": "javascript",
          "version": "0.0.5",
          "dev": false,
          "notRemovable": false
        }
      }
    }
  },
  "PROJECT_META": {
    "projectName": "testINDUUUU",
    "projectDescription": "",
    "projectVersion": "1.0.0",
    "projectRegion": "us-east-1",
    "platform": "AWS",
    "language": "javascript",
    "platformRegions": {},
    "lastSave": 1580902748194
  },
  "VCS_STATE": {
    "provider": "GitLab",
    "repo": {
      "name": "testinduuuu",
      "url": "https://gitlab.com/indunilRajapakse1992/testinduuuu"
    }
  }
}